COMMAND: ./3600mkfs 1000
Formatting the disk with size 1000 
COMMAND: ./3600mkfs 100000
Formatting the disk with size 100000 
COMMAND: ./3600mkfs 100000
Formatting the disk with size 100000 
COMMAND: ./3600mkfs 100000
Formatting the disk with size 100000 
COMMAND: ./3600mkfs 100000
Formatting the disk with size 100000 
COMMAND: ./3600mkfs 100000
Formatting the disk with size 100000 
COMMAND: ./3600mkfs 1000
Formatting the disk with size 1000 
COMMAND: ./3600mkfs 100000
Formatting the disk with size 100000 
COMMAND: ./3600mkfs 100000
Formatting the disk with size 100000 
COMMAND: ./3600mkfs 100000
Formatting the disk with size 100000 
COMMAND: ./3600mkfs 100000
Formatting the disk with size 100000 
COMMAND: ./3600mkfs 100000
Formatting the disk with size 100000 
COMMAND: ./3600mkfs 1000
Formatting the disk with size 1000 
COMMAND: ./3600mkfs 100000
Formatting the disk with size 100000 
COMMAND: ./3600mkfs 100000
Formatting the disk with size 100000 
COMMAND: ./3600mkfs 100000
Formatting the disk with size 100000 
COMMAND: ./3600mkfs 100000
Formatting the disk with size 100000 
COMMAND: ./3600mkfs 100000
Formatting the disk with size 100000 
COMMAND: ./3600mkfs 1000
Formatting the disk with size 1000 
COMMAND: ./3600mkfs 100000
Formatting the disk with size 100000 
COMMAND: ./3600mkfs 100000
Formatting the disk with size 100000 
COMMAND: ./3600mkfs 100000
Formatting the disk with size 100000 
COMMAND: ./3600mkfs 100000
Formatting the disk with size 100000 
COMMAND: ./3600mkfs 100000
Formatting the disk with size 100000 
COMMAND: ./3600mkfs 1000
Formatting the disk with size 1000 
COMMAND: ./3600mkfs 100000
Formatting the disk with size 100000 
COMMAND: ./3600mkfs 100000
Formatting the disk with size 100000 
COMMAND: ./3600mkfs 100000
Formatting the disk with size 100000 
COMMAND: ./3600mkfs 100000
Formatting the disk with size 100000 
COMMAND: ./3600mkfs 100000
Formatting the disk with size 100000 
COMMAND: ./3600mkfs 1000
Formatting the disk with size 1000 
sizeof block_num:4
sizeof VCB:516
sizeof INode:512
sizeof DE:36
COMMAND: ./3600mkfs 100000
Formatting the disk with size 100000 
sizeof block_num:4
sizeof VCB:516
sizeof INode:512
sizeof DE:36
COMMAND: ./3600mkfs 100000
Formatting the disk with size 100000 
sizeof block_num:4
sizeof VCB:516
sizeof INode:512
sizeof DE:36
COMMAND: ./3600mkfs 100000
Formatting the disk with size 100000 
sizeof block_num:4
sizeof VCB:516
sizeof INode:512
sizeof DE:36
COMMAND: ./3600mkfs 100000
Formatting the disk with size 100000 
sizeof block_num:4
sizeof VCB:516
sizeof INode:512
sizeof DE:36
COMMAND: ./3600mkfs 100000
Formatting the disk with size 100000 
sizeof block_num:4
sizeof VCB:516
sizeof INode:512
sizeof DE:36
COMMAND: ./3600mkfs 1000
Formatting the disk with size 1000 
sizeof block_num:4
sizeof VCB:516
sizeof INode:512
sizeof DE:36
COMMAND: ./3600mkfs 100000
Formatting the disk with size 100000 
sizeof block_num:4
sizeof VCB:516
sizeof INode:512
sizeof DE:36
COMMAND: ./3600mkfs 100000
Formatting the disk with size 100000 
sizeof block_num:4
sizeof VCB:516
sizeof INode:512
sizeof DE:36
COMMAND: ./3600mkfs 100000
Formatting the disk with size 100000 
sizeof block_num:4
sizeof VCB:516
sizeof INode:512
sizeof DE:36
COMMAND: ./3600mkfs 100000
Formatting the disk with size 100000 
sizeof block_num:4
sizeof VCB:516
sizeof INode:512
sizeof DE:36
COMMAND: ./3600mkfs 100000
Formatting the disk with size 100000 
sizeof block_num:4
sizeof VCB:516
sizeof INode:512
sizeof DE:36
COMMAND: ./3600mkfs 1000
Formatting the disk with size 1000 
sizeof block_num:4
sizeof VCB:516
sizeof INode:512
sizeof DE:36
COMMAND: ./3600mkfs 100000
Formatting the disk with size 100000 
sizeof block_num:4
sizeof VCB:516
sizeof INode:512
sizeof DE:36
COMMAND: ./3600mkfs 100000
Formatting the disk with size 100000 
sizeof block_num:4
sizeof VCB:516
sizeof INode:512
sizeof DE:36
COMMAND: ./3600mkfs 100000
Formatting the disk with size 100000 
sizeof block_num:4
sizeof VCB:516
sizeof INode:512
sizeof DE:36
COMMAND: ./3600mkfs 100000
Formatting the disk with size 100000 
sizeof block_num:4
sizeof VCB:516
sizeof INode:512
sizeof DE:36
COMMAND: ./3600mkfs 100000
Formatting the disk with size 100000 
sizeof block_num:4
sizeof VCB:516
sizeof INode:512
sizeof DE:36
COMMAND: ./3600mkfs 1000
Formatting the disk with size 1000 
sizeof block_num:4
sizeof VCB:516
sizeof INode:512
sizeof DE:40
COMMAND: ./3600mkfs 100000
Formatting the disk with size 100000 
sizeof block_num:4
sizeof VCB:516
sizeof INode:512
sizeof DE:40
COMMAND: ./3600mkfs 100000
Formatting the disk with size 100000 
sizeof block_num:4
sizeof VCB:516
sizeof INode:512
sizeof DE:40
COMMAND: ./3600mkfs 100000
Formatting the disk with size 100000 
sizeof block_num:4
sizeof VCB:516
sizeof INode:512
sizeof DE:40
COMMAND: ./3600mkfs 100000
Formatting the disk with size 100000 
sizeof block_num:4
sizeof VCB:516
sizeof INode:512
sizeof DE:40
COMMAND: ./3600mkfs 100000
Formatting the disk with size 100000 
sizeof block_num:4
sizeof VCB:516
sizeof INode:512
sizeof DE:40
COMMAND: ./3600mkfs 1000
Formatting the disk with size 1000 
sizeof block_num:4
sizeof VCB:516
sizeof INode:512
sizeof DE:40
COMMAND: ./3600mkfs 100000
Formatting the disk with size 100000 
sizeof block_num:4
sizeof VCB:516
sizeof INode:512
sizeof DE:40
COMMAND: ./3600mkfs 100000
Formatting the disk with size 100000 
sizeof block_num:4
sizeof VCB:516
sizeof INode:512
sizeof DE:40
COMMAND: ./3600mkfs 100000
Formatting the disk with size 100000 
sizeof block_num:4
sizeof VCB:516
sizeof INode:512
sizeof DE:40
COMMAND: ./3600mkfs 100000
Formatting the disk with size 100000 
sizeof block_num:4
sizeof VCB:516
sizeof INode:512
sizeof DE:40
COMMAND: ./3600mkfs 100000
Formatting the disk with size 100000 
sizeof block_num:4
sizeof VCB:516
sizeof INode:512
sizeof DE:40
